[
    "1dfbc90d6ef97b346e1a28e4f7c500b1.jpg",
    "3cefc0114212005676d179b0645e3da0.png",
    "6e48fb628b990c5fe7ce69f9e0fabe34.jpg",
    "a5a38b6ef36800fdb904a13d580e4567.jpg",
    "ad813b174704777da6a4ac2f494ed959.png",
    "b0b25d95f0f3787ce306e84310188881.png",
    "cb43465b8456eb6559b98f359058c1f6.png",
    "sample_010fb11cd92d82a0394b83b347887a1f.jpg",
    "sample_06f4d0f0755c541cc16a7c54cacb0fbd.jpg",
    "sample_1c1fa0c4edbbf40548d0fd99c0f57587.jpg",
    "sample_25afea8ca7734c016e0d67b8842e2a54.jpg",
    "sample_261580bcf948ec8dd5d2f4dee8b24264.jpg",
    "sample_3664c55327565a1f912e44487b4eb57c.jpg",
    "sample_50124e8ecfdd55c22336b7d78014ec60.jpg",
    "sample_92efb1980e4d2ed8346dd7e0182cf33e.jpg",
    "x03-Kuzuki-sensei-strangles-Saber.jpg"
]