[
    "051235b089295a7a6fd7938a8f3fad9c9ac607fc.png",
    "0ac04beff194a5be875912e4278c57748453bf63.jpg",
    "1725c5af9088dde9830b9bfb1d87d49dc0b720ce.png",
    "1785cd8b7f9097e9ec765d8f6408d09ce72370f3.png",
    "1acc6b3ca6aa04932542830818fd9a64188c4237.png",
    "1e76ecbbabd4f00671b68942a2ef5a02a042534a.jpg",
    "209afd519d5cd51e2791019c635461d4f25f965d.jpg",
    "209ffc70ac84ea98a0d5e7e6c5fd695db63e7c4a.jpg",
    "29f6298947e62c885ef82f040bd414c894049f4b.jpg",
    "2a202f767bfbbe8b1a4c3e391a9ae903e6c1ad9f.jpg",
    "2b1038c75fb0ee89a40e1da7f5e40d6d8b5e56a4.jpg",
    "2ccc0d78ec1ea5dff477c69c9032c27167828595.jpg",
    "342c40434e721025fb77a493aeb8f571bb3d2617.jpg",
    "42f50f1657641a54895d47e02374c327394f3aa4.jpg",
    "46c7cdeed03bb36ac760ab29f0b506da9020f760.png",
    "4952583a496949db3731c0c87224853b53245edf.png",
    "4e6916e2dfbab88935c91ba51082605e58020ad5.png",
    "546b8c657dc7be14d15cc5f465e62200cf7a89fa.jpg",
    "6bc76dcce9911a577d7243fefdf8740641478cc3.png",
    "6d0a4261bacb77a0942be33141a858e59787c6ea.png",
    "7df2665d3927defc2d75574f89815c457d3384ac.jpg",
    "7ecbec610407e1aaacb4696856ea729d4d5f61e0.jpg",
    "7f0829c77a821c05a9fcb9b6879b2c9d117ee0d1.jpg",
    "813aeb9dc69564b678158bfad422674dca2ead1b.png",
    "82ae7a7975efb21e96b8d9ba087850a6f6eaf864.jpg",
    "88fdb36a90ce71a0044915b000bda772cf9ba5f4.jpg",
    "8b36ad5aa33f5fcd4a27f03965eff5e369701994.jpg",
    "957544125738b09a1c8f4b4e5e8883518fa94a2e.png",
    "96d4e46de7b864c461b3ab6ffaf2a7e6d5ee53e7.png",
    "97f7ed621373d3b2c092a91a58d8e41af6149c8e.png",
    "9ed817d3019fba3c712833f3994a52b1618c9027.jpg",
    "a3fc152702b38223c9e6691de750325e894b2371.png",
    "ad0936544c8afb9a0aea8e7a0e1f649b335b3e63.png",
    "bad2515e90f128846b8e41ea668506c16485b202.png",
    "c148402baa2093d2e3f246cfd55a05b3bdc82113.jpg",
    "c61b53695a99ec37769b2aa66baf857089fff3fb.jpg",
    "c684862a918dc8748631dc8ef8af898e9ad98581.jpg",
    "ce1b176698224fdd5066678086a53a92002f0c49.jpg",
    "d2ee0fc737a17052363e5bb6f2d2a79f16cbcec9.jpg",
    "d5cca1c642b46805d6856353cb68d8faa03dae4f.png",
    "d6a3ffeb7726f4448bf13b4781f27de9364e3670.jpg",
    "d788e1cc1fab4561dac6fa40f7c8cef51e563c76.jpg",
    "d9390238fb711ca0bfe503b523d55d012bce493c.png",
    "ddf8409a0a65890a7604ead8ec9b30122acee05c.jpg",
    "e5fa1595b6412a3b8d1dc62e94cc78cdb34ac8bc.jpg",
    "ea76ab421a28184b049cb9243ea904cc077404d8.png",
    "eb88332eb081530ba85cfb67150d64bd848d3479.png",
    "f406dd3fb456fd3ccc5c4a40e7a1c8837693f00e.jpg",
    "f4b0c52b87bf9b5cd298174d5ceaf3ddb13371e6.jpg",
    "f94ba6e173414943cda8ddd387b43f89655366a1.png",
    "fcccf5534b0461bfe679ab2115537b0c907e3ee7.png",
    "fcf6b7bf43e40e91fa6832abd444de88885d5c59.jpg",
    "ff595cdbc0ae02f4fba00c4b70ed0d30918c50a6.jpg",
    "sample_075fbbf4f229de45f73154c0106fedba8df0cb9a.jpg",
    "sample_0bfdb43c2215c4f67e65c86a7a8b9dac93d6d589.jpg",
    "sample_1cff4d6a300f246bb7878e26d4c5a1e479d69761.jpg",
    "sample_2c0d7c35ac4f7bbbe72b1b88bda5778fa27da71b.jpg",
    "sample_38f6e982fb033699457c11d960715e136d239c06.jpg",
    "sample_4e89cc9e1b3c95cb06cdb158b8b9a8cbe9332231.jpg",
    "sample_598bf895ec6baea945d218ea5832a46c283d4f9b.jpg",
    "sample_5add09596f9a5a5daf68908a9e40543f404ae8c1.jpg",
    "sample_6102d9d44d4e28b71112a9c4e9c8f71d057dc058.jpg",
    "sample_6cb1a20302e11405b30a16f47ca51ec8bc7722f7.jpg",
    "sample_7d71c394fee394e6d589ecd7734846a0e94db3f2.jpg",
    "sample_7eae6ed1c0b3deaf8477f7598018e82d62df1d3a.jpg",
    "sample_82406ce78a82cc1c25006c1eff6895706a65c21b.jpg",
    "sample_95c0c300d1d6af2206784a18f74500d4ae10e6a2.jpg",
    "sample_979d41c76cb15222855ba5777e771ce3d625cbba.jpg",
    "sample_9ed2222bbf2690f6c07f7c81f25519891d3cc4bc.jpg",
    "sample_a2b561a8dadb8bcfca2398918922a3394901d4c9.jpg",
    "sample_ad05fdacb28286bacad4574bd0defa6aa793c087.jpg",
    "sample_b5296ab2e84ad272afb5fe6bf46c02572e053ade.jpg",
    "sample_b99ba3e61006ccbed097c3189dc143ccf2f54e56.jpg",
    "sample_d275e6193f1c0c5b0177c9b85b34fed1448fb76a.jpg",
    "sample_d65eb15fa6ebe37b9733cae7e056f8dfd0881f78.jpg",
    "sample_dee3e9ded6750f3cebd21357c821bdae252773b6.jpg",
    "sample_e274656ba5e037d739742a05da5f6aba10e046e5.jpg",
    "sample_e89579b4c5b3fca117351493827f0f6f8feacebe.jpg",
    "sample_ea52c92ca0da0317f94d386ba40f5c9a273fc1f4.jpg",
    "sample_eefc33f53cf7dcdbf462a2dcb49650483535ecfa.jpg",
    "sample_f703c114c722997c20b19dcfe29310a005eb4b0b.jpg",
    "sample_fa76c0dd24ca5088068f68c7955c5b5add895e1f.jpg"
]