[
    "03ced4263c888bbf9f10f380683718f753fbc84a.jpg",
    "064c87954f08b914ef23406db520e0f102f1eaaf.jpg",
    "06701e2856c0cebc603e7f16700594e7bfffb85c.png",
    "0673f05d23a4f6e86321b5b5f3e1da793aa3deed.jpg",
    "0c940126dab9125bcddd8e83898fb5fbed1c378d.png",
    "1431814a78e1148893fa56d94b2609fd5156ac22.png",
    "1c1bc36d2e42292d23bdc691514599c057176bc8.jpg",
    "205a67792323f69e37b89ca0065a670012eff8ae.jpg",
    "22d320c2291c4970f5abd9a4706d534303a43dad.jpg",
    "25931a13d225582aaa437d89ab5e09a91c534f15.jpg",
    "27f7b09d2de69c96f6c3571e4faf3aca96ca510c.jpg",
    "2a82d96da8f674c950207053744f4c3096d8beaa.jpg",
    "2d2c6dd709c57b6316b43e424c992f70c2c6d296.jpg",
    "3ad8b6778ea91a375ff056113c173779d36fef51.jpg",
    "3d3b3caf7eb104fec9b432758933b0398d7aadb6.jpg",
    "41c3697954d843e4ea9294b658ccdb50d89e6fb2.png",
    "44356d7ef5b9f4d657dd96319f23683e5d77b770.jpg",
    "44ea08cece348b3eb606d42b1dcefe71c0d48bd6.png",
    "46514b0c6dfd3570bc44a5bc5cd88f196a924456.jpg",
    "4a5e78d22b2484bc30564dff135e8157773bc559.jpg",
    "5b47c95baa5d92548d377a98842044b359e7e746.jpg",
    "62be4ef4207c51852533df217b88cf211487dbba.png",
    "6709d8d1945e90fffcd2b01654256230fcd1b77e.jpg",
    "6f744931eaeece34ed94635ca063422f0aa79a56.jpg",
    "76a57d7f268876f0f008a24561d08e9c1d2ec930.png",
    "7f75ab9d69682301d04b1d55944d0c5b3c2a130b.jpg",
    "88d25b47cf23e95dc0ff495ee7dd18817f9cc71e.jpg",
    "8afcbbccf3cb28a837e5c95cde95d3fd62c14559.jpg",
    "937f820abcb5a7d651ba7d736ed0723e17c6b8b1.jpg",
    "9c022162d5a95d4fcf0da8fd228f613caf773a84.png",
    "9da62091a943900bd995134b3300e3280ef23cba.jpg",
    "9e7c7afe66d9edf649eb7332ff53e2ac40bd0817.jpg",
    "a034de582c1a8da0bb33d65014643ca51b0394d9.jpg",
    "a161c4ab0c2f54a1a69cef4cbe94189664b32f9e.png",
    "a1f947386e97403db185bb784d61e06840f86990.png",
    "a1fb95820a0a06c641312bda3ad5a8a12ffc611e.jpg",
    "b9b6462bd81b39168cc33d6525a3c0769db809be.png",
    "c04c043259b524ebe94bbcfeca773a44dc972e3f.jpg",
    "c379d18ba89047fea1a6ef81ec9644af9bc977ad.jpg",
    "ce54261830dbe29e97b96271cd1b5bbc4e39a45e.png",
    "dae42c960100fb62bf253a97ae10aa9e6afb2f58.png",
    "ddeef5b78f9377842af2b1d41486ea20633719ae.jpg",
    "e51be8797296022d6417c41889e315db75ebeadb.jpg",
    "ea384d2f8b71bd3a0fc906907c978be4bba4579a.png",
    "ec932febff8d324ed9cc1db199f8d11a24a8030e.png",
    "f9fc371d16c8bbaa75382939936f2f6fea288b75.jpg",
    "fdf77bb80d0fbe9d3112356d7e3292cb7c2fb3d1.jpg",
    "sample_151e9c76c7a30a3bf0e5587cb666e10095e7432c.jpg",
    "sample_1a98f4e3485e76392015853e45ec8ff9e5952924.jpg",
    "sample_40db6c09eb429144e5530a330e1747eed9716d38.jpg",
    "sample_65fba1f771de875e06eff1c7e069ef66edb9a9c1.jpg",
    "sample_73c3bcfeb253b2cba962bed76d358af98aac6d3e.jpg",
    "sample_7956c9cf54924d5f092ca42dbadab2313fe0ab72.jpg",
    "sample_7bf0a50817f090552241e655720aaf1e6bf1b3ea.jpg",
    "sample_820998fcd91126efec48e2c3397385bcbf3561c5.jpg",
    "sample_9d6795a7ca0d972dd67bd9ce662d7ffdcffdb6e9.jpg",
    "sample_a10606804916746838c49762518e419f38b5f47b.jpg",
    "sample_a32c22eb2d0ddb7a8673fa50d1100316a94b0ee1.jpg",
    "sample_a5791c2f67d9d01171ac839d4f52cabb41202a23.jpg",
    "sample_aa1224a6af5bc46a4fffc0b99c77e374406277eb.jpg",
    "sample_b2e66dd2c6b2aa01bd48638cfb1eddded6aebfda.jpg",
    "sample_c12119f51a3d1f6fc53ed66ce9feb074509f19aa.jpg",
    "sample_cb6b48778bc4130c2a0a4e3770d3b76cdbe37c0a.jpg",
    "sample_d99aa134d46cd019693a2c183dfe2cfe6a8ad54a.jpg",
    "sample_dac98400fbe9fbdcca2e470714c9299fbd0be212.jpg",
    "sample_fde9d93e3572d8b2643f27680660a0c4fb440fe8.jpg"
]